EESchema Schematic File Version 2
LIBS:power
LIBS:device
LIBS:switches
LIBS:relays
LIBS:motors
LIBS:transistors
LIBS:conn
LIBS:linear
LIBS:regul
LIBS:74xx
LIBS:cmos4000
LIBS:adc-dac
LIBS:memory
LIBS:xilinx
LIBS:microcontrollers
LIBS:dsp
LIBS:microchip
LIBS:analog_switches
LIBS:motorola
LIBS:texas
LIBS:intel
LIBS:audio
LIBS:interface
LIBS:digital-audio
LIBS:philips
LIBS:display
LIBS:cypress
LIBS:siliconi
LIBS:opto
LIBS:atmel
LIBS:contrib
LIBS:valves
LIBS:STMicroelectronics
LIBS:AVIA Semiconductor
LIBS:hc06
LIBS:LeanBoard-cache
EELAYER 25 0
EELAYER END
$Descr A3 16535 11693
encoding utf-8
Sheet 1 1
Title "LeanBoard Control Board"
Date ""
Rev "1.0.0"
Comp ""
Comment1 ""
Comment2 ""
Comment3 ""
Comment4 ""
$EndDescr
$Comp
L STM32F030R8 U1
U 1 1 5B34E027
P 9300 3100
F 0 "U1" H 8200 4200 60  0000 C CNN
F 1 "STM32F030R8" H 9300 3200 60  0000 C CNN
F 2 "Package_QFP:LQFP-64_10x10mm_P0.5mm" H 9100 4350 60  0001 C CNN
F 3 "" H 9100 4350 60  0001 C CNN
	1    9300 3100
	1    0    0    -1  
$EndComp
$Comp
L +3.3V #PWR01
U 1 1 5B351770
P 7800 2250
F 0 "#PWR01" H 7800 2100 50  0001 C CNN
F 1 "+3.3V" H 7800 2390 50  0000 C CNN
F 2 "" H 7800 2250 50  0001 C CNN
F 3 "" H 7800 2250 50  0001 C CNN
	1    7800 2250
	1    0    0    -1  
$EndComp
$Comp
L +3.3V #PWR02
U 1 1 5B351789
P 7500 3550
F 0 "#PWR02" H 7500 3400 50  0001 C CNN
F 1 "+3.3V" H 7500 3690 50  0000 C CNN
F 2 "" H 7500 3550 50  0001 C CNN
F 3 "" H 7500 3550 50  0001 C CNN
	1    7500 3550
	0    -1   -1   0   
$EndComp
$Comp
L GND #PWR03
U 1 1 5B35179F
P 7500 3350
F 0 "#PWR03" H 7500 3100 50  0001 C CNN
F 1 "GND" H 7500 3200 50  0000 C CNN
F 2 "" H 7500 3350 50  0001 C CNN
F 3 "" H 7500 3350 50  0001 C CNN
	1    7500 3350
	0    1    1    0   
$EndComp
$Comp
L GND #PWR04
U 1 1 5B3517C6
P 9950 4650
F 0 "#PWR04" H 9950 4400 50  0001 C CNN
F 1 "GND" H 9950 4500 50  0000 C CNN
F 2 "" H 9950 4650 50  0001 C CNN
F 3 "" H 9950 4650 50  0001 C CNN
	1    9950 4650
	1    0    0    -1  
$EndComp
$Comp
L +3.3V #PWR05
U 1 1 5B3517DC
P 10200 4650
F 0 "#PWR05" H 10200 4500 50  0001 C CNN
F 1 "+3.3V" H 10200 4790 50  0000 C CNN
F 2 "" H 10200 4650 50  0001 C CNN
F 3 "" H 10200 4650 50  0001 C CNN
	1    10200 4650
	-1   0    0    1   
$EndComp
$Comp
L Crystal_GND23 Y1
U 1 1 5B351C35
P 6650 2600
F 0 "Y1" H 6775 2800 50  0000 L CNN
F 1 "ABS25-32.768KHZ-6-T" H 6775 2725 50  0000 L CNN
F 2 "" H 6650 2600 50  0001 C CNN
F 3 "" H 6650 2600 50  0001 C CNN
	1    6650 2600
	0    -1   -1   0   
$EndComp
$Comp
L C C2
U 1 1 5B351FA6
P 6250 2900
F 0 "C2" H 6275 3000 50  0000 L CNN
F 1 "C" H 6275 2800 50  0000 L CNN
F 2 "Capacitors_SMD:C_0603" H 6288 2750 50  0001 C CNN
F 3 "" H 6250 2900 50  0001 C CNN
	1    6250 2900
	0    -1   -1   0   
$EndComp
$Comp
L C C1
U 1 1 5B352050
P 6250 2250
F 0 "C1" H 6275 2350 50  0000 L CNN
F 1 "C" H 6275 2150 50  0000 L CNN
F 2 "Capacitors_SMD:C_0603" H 6288 2100 50  0001 C CNN
F 3 "" H 6250 2250 50  0001 C CNN
	1    6250 2250
	0    -1   -1   0   
$EndComp
$Comp
L GND #PWR06
U 1 1 5B3520E8
P 6000 2250
F 0 "#PWR06" H 6000 2000 50  0001 C CNN
F 1 "GND" H 6000 2100 50  0000 C CNN
F 2 "" H 6000 2250 50  0001 C CNN
F 3 "" H 6000 2250 50  0001 C CNN
	1    6000 2250
	0    1    1    0   
$EndComp
$Comp
L GND #PWR07
U 1 1 5B352104
P 6000 2900
F 0 "#PWR07" H 6000 2650 50  0001 C CNN
F 1 "GND" H 6000 2750 50  0000 C CNN
F 2 "" H 6000 2900 50  0001 C CNN
F 3 "" H 6000 2900 50  0001 C CNN
	1    6000 2900
	0    1    1    0   
$EndComp
Text GLabel 7700 2750 0    60   Input ~ 0
OSC_IN
Text GLabel 7700 2900 0    60   Input ~ 0
OSC_OUT
$Comp
L SW_DIP_x01 SW1
U 1 1 5B35227D
P 7000 6050
F 0 "SW1" H 7000 6200 50  0000 C CNN
F 1 "SW_DIP_x01" H 7000 5900 50  0000 C CNN
F 2 "" H 7000 6050 50  0001 C CNN
F 3 "" H 7000 6050 50  0001 C CNN
	1    7000 6050
	0    1    1    0   
$EndComp
Text GLabel 7700 3050 0    60   Input ~ 0
Reset
Text GLabel 7000 5500 1    60   Input ~ 0
Reset
$Comp
L GND #PWR08
U 1 1 5B352398
P 7000 6600
F 0 "#PWR08" H 7000 6350 50  0001 C CNN
F 1 "GND" H 7000 6450 50  0000 C CNN
F 2 "" H 7000 6600 50  0001 C CNN
F 3 "" H 7000 6600 50  0001 C CNN
	1    7000 6600
	1    0    0    -1  
$EndComp
$Comp
L Crystal_GND23 Y2
U 1 1 5B35247B
P 9300 6200
F 0 "Y2" H 9425 6400 50  0000 L CNN
F 1 "Crystal_GND23" H 8450 6000 50  0000 L CNN
F 2 "" H 9300 6200 50  0001 C CNN
F 3 "" H 9300 6200 50  0001 C CNN
	1    9300 6200
	0    1    1    0   
$EndComp
$Comp
L C C3
U 1 1 5B3524B8
P 8800 5900
F 0 "C3" H 8825 6000 50  0000 L CNN
F 1 "C" H 8825 5800 50  0000 L CNN
F 2 "Capacitors_SMD:C_0603" H 8838 5750 50  0001 C CNN
F 3 "" H 8800 5900 50  0001 C CNN
	1    8800 5900
	0    1    1    0   
$EndComp
$Comp
L C C4
U 1 1 5B35250B
P 8800 6500
F 0 "C4" H 8825 6600 50  0000 L CNN
F 1 "C" H 8825 6400 50  0000 L CNN
F 2 "Capacitors_SMD:C_0603" H 8838 6350 50  0001 C CNN
F 3 "" H 8800 6500 50  0001 C CNN
	1    8800 6500
	0    1    1    0   
$EndComp
$Comp
L GND #PWR09
U 1 1 5B3525AA
P 8500 6500
F 0 "#PWR09" H 8500 6250 50  0001 C CNN
F 1 "GND" H 8500 6350 50  0000 C CNN
F 2 "" H 8500 6500 50  0001 C CNN
F 3 "" H 8500 6500 50  0001 C CNN
	1    8500 6500
	0    1    1    0   
$EndComp
$Comp
L GND #PWR010
U 1 1 5B3525CE
P 8500 5900
F 0 "#PWR010" H 8500 5650 50  0001 C CNN
F 1 "GND" H 8500 5750 50  0000 C CNN
F 2 "" H 8500 5900 50  0001 C CNN
F 3 "" H 8500 5900 50  0001 C CNN
	1    8500 5900
	0    1    1    0   
$EndComp
$Comp
L R R1
U 1 1 5B35267E
P 9900 5900
F 0 "R1" V 9980 5900 50  0000 C CNN
F 1 "R" V 9900 5900 50  0000 C CNN
F 2 "Resistors_SMD:R_0603" V 9830 5900 50  0001 C CNN
F 3 "" H 9900 5900 50  0001 C CNN
	1    9900 5900
	0    1    1    0   
$EndComp
$Comp
L R R2
U 1 1 5B3526B5
P 9900 6500
F 0 "R2" V 9980 6500 50  0000 C CNN
F 1 "R" V 9900 6500 50  0000 C CNN
F 2 "Resistors_SMD:R_0603" V 9830 6500 50  0001 C CNN
F 3 "" H 9900 6500 50  0001 C CNN
	1    9900 6500
	0    1    1    0   
$EndComp
Text GLabel 10300 5900 2    60   Input ~ 0
OSC_IN
Text GLabel 10300 6500 2    60   Input ~ 0
OSC_OUT
$Comp
L +3.3V #PWR011
U 1 1 5B35286E
P 8550 1650
F 0 "#PWR011" H 8550 1500 50  0001 C CNN
F 1 "+3.3V" H 8550 1790 50  0000 C CNN
F 2 "" H 8550 1650 50  0001 C CNN
F 3 "" H 8550 1650 50  0001 C CNN
	1    8550 1650
	1    0    0    -1  
$EndComp
$Comp
L GND #PWR012
U 1 1 5B3528CB
P 8750 1650
F 0 "#PWR012" H 8750 1400 50  0001 C CNN
F 1 "GND" H 8750 1500 50  0000 C CNN
F 2 "" H 8750 1650 50  0001 C CNN
F 3 "" H 8750 1650 50  0001 C CNN
	1    8750 1650
	-1   0    0    1   
$EndComp
$Comp
L +3.3V #PWR013
U 1 1 5B352B24
P 2650 8350
F 0 "#PWR013" H 2650 8200 50  0001 C CNN
F 1 "+3.3V" H 2650 8490 50  0000 C CNN
F 2 "" H 2650 8350 50  0001 C CNN
F 3 "" H 2650 8350 50  0001 C CNN
	1    2650 8350
	1    0    0    -1  
$EndComp
$Comp
L GND #PWR014
U 1 1 5B352B4C
P 2650 8750
F 0 "#PWR014" H 2650 8500 50  0001 C CNN
F 1 "GND" H 2650 8600 50  0000 C CNN
F 2 "" H 2650 8750 50  0001 C CNN
F 3 "" H 2650 8750 50  0001 C CNN
	1    2650 8750
	1    0    0    -1  
$EndComp
$Comp
L C C6
U 1 1 5B352B74
P 2650 8550
F 0 "C6" H 2675 8650 50  0000 L CNN
F 1 "100nF" H 2675 8450 50  0000 L CNN
F 2 "Capacitors_SMD:C_0603" H 2688 8400 50  0001 C CNN
F 3 "" H 2650 8550 50  0001 C CNN
	1    2650 8550
	1    0    0    -1  
$EndComp
$Comp
L C C7
U 1 1 5B352BCB
P 2950 8550
F 0 "C7" H 2975 8650 50  0000 L CNN
F 1 "100nF" H 2975 8450 50  0000 L CNN
F 2 "Capacitors_SMD:C_0603" H 2988 8400 50  0001 C CNN
F 3 "" H 2950 8550 50  0001 C CNN
	1    2950 8550
	1    0    0    -1  
$EndComp
$Comp
L C C8
U 1 1 5B352C08
P 3250 8550
F 0 "C8" H 3275 8650 50  0000 L CNN
F 1 "4.7uF" H 3275 8450 50  0000 L CNN
F 2 "Capacitors_SMD:C_0603" H 3288 8400 50  0001 C CNN
F 3 "" H 3250 8550 50  0001 C CNN
	1    3250 8550
	1    0    0    -1  
$EndComp
$Comp
L TLV1117-33 U2
U 1 1 5B352EB4
P 2850 9850
F 0 "U2" H 2700 9975 50  0000 C CNN
F 1 "TLV1117-33" H 2850 9975 50  0000 L CNN
F 2 "TO_SOT_Packages_SMD:SOT-223-3_TabPin2" H 2850 9850 50  0001 C CNN
F 3 "" H 2850 9850 50  0001 C CNN
	1    2850 9850
	1    0    0    -1  
$EndComp
$Comp
L +3.3V #PWR015
U 1 1 5B352F1B
P 3650 9650
F 0 "#PWR015" H 3650 9500 50  0001 C CNN
F 1 "+3.3V" H 3650 9790 50  0000 C CNN
F 2 "" H 3650 9650 50  0001 C CNN
F 3 "" H 3650 9650 50  0001 C CNN
	1    3650 9650
	1    0    0    -1  
$EndComp
$Comp
L GND #PWR016
U 1 1 5B352F8E
P 2850 10350
F 0 "#PWR016" H 2850 10100 50  0001 C CNN
F 1 "GND" H 2850 10200 50  0000 C CNN
F 2 "" H 2850 10350 50  0001 C CNN
F 3 "" H 2850 10350 50  0001 C CNN
	1    2850 10350
	1    0    0    -1  
$EndComp
Text GLabel 2100 9850 0    60   Input ~ 0
V_BAT_CHARGER
$Comp
L +5V #PWR017
U 1 1 5B353074
P 2350 9650
F 0 "#PWR017" H 2350 9500 50  0001 C CNN
F 1 "+5V" H 2350 9790 50  0000 C CNN
F 2 "" H 2350 9650 50  0001 C CNN
F 3 "" H 2350 9650 50  0001 C CNN
	1    2350 9650
	1    0    0    -1  
$EndComp
$Comp
L C C5
U 1 1 5B3530EC
P 2350 10100
F 0 "C5" H 2375 10200 50  0000 L CNN
F 1 "1uF" H 2375 10000 50  0000 L CNN
F 2 "Capacitors_SMD:C_0603" H 2388 9950 50  0001 C CNN
F 3 "" H 2350 10100 50  0001 C CNN
	1    2350 10100
	1    0    0    -1  
$EndComp
$Comp
L C C9
U 1 1 5B353153
P 3350 10100
F 0 "C9" H 3375 10200 50  0000 L CNN
F 1 "1uF" H 3375 10000 50  0000 L CNN
F 2 "Capacitors_SMD:C_0603" H 3388 9950 50  0001 C CNN
F 3 "" H 3350 10100 50  0001 C CNN
	1    3350 10100
	1    0    0    -1  
$EndComp
$Comp
L HX711 U3
U 1 1 5B35E205
P 3100 2700
F 0 "U3" H 3350 3150 60  0000 C CNN
F 1 "HX711" H 2950 3150 60  0000 C CNN
F 2 "SMD_Packages:SO-16-L" H 3100 2700 60  0001 C CNN
F 3 "" H 3100 2700 60  0001 C CNN
	1    3100 2700
	1    0    0    -1  
$EndComp
$Comp
L C C14
U 1 1 5B35E5BC
P 6550 6050
F 0 "C14" H 6575 6150 50  0000 L CNN
F 1 "100nF" H 6575 5950 50  0000 L CNN
F 2 "Capacitors_SMD:C_0603" H 6588 5900 50  0001 C CNN
F 3 "" H 6550 6050 50  0001 C CNN
	1    6550 6050
	1    0    0    -1  
$EndComp
$Comp
L GND #PWR018
U 1 1 5B35E96F
P 4050 3000
F 0 "#PWR018" H 4050 2750 50  0001 C CNN
F 1 "GND" H 4050 2850 50  0000 C CNN
F 2 "" H 4050 3000 50  0001 C CNN
F 3 "" H 4050 3000 50  0001 C CNN
	1    4050 3000
	0    -1   -1   0   
$EndComp
$Comp
L GND #PWR019
U 1 1 5B35EC5B
P 4050 2500
F 0 "#PWR019" H 4050 2250 50  0001 C CNN
F 1 "GND" H 4050 2350 50  0000 C CNN
F 2 "" H 4050 2500 50  0001 C CNN
F 3 "" H 4050 2500 50  0001 C CNN
	1    4050 2500
	0    -1   -1   0   
$EndComp
Text GLabel 4500 2800 2    60   Input ~ 0
DOUT
Text GLabel 4500 2950 2    60   Input ~ 0
PD_SCK
$Comp
L R R3
U 1 1 5B35F264
P 1550 2850
F 0 "R3" V 1450 2850 50  0000 C CNN
F 1 "20k" V 1550 2850 50  0000 C CNN
F 2 "Resistors_SMD:R_0603" V 1480 2850 50  0001 C CNN
F 3 "" H 1550 2850 50  0001 C CNN
	1    1550 2850
	1    0    0    -1  
$EndComp
$Comp
L R R4
U 1 1 5B35F2AB
P 1550 3250
F 0 "R4" V 1630 3250 50  0000 C CNN
F 1 "8.2k" V 1550 3250 50  0000 C CNN
F 2 "Resistors_SMD:R_0603" V 1480 3250 50  0001 C CNN
F 3 "" H 1550 3250 50  0001 C CNN
	1    1550 3250
	1    0    0    -1  
$EndComp
Text GLabel 2300 4400 3    60   Input ~ 0
S+
Text GLabel 2600 4400 3    60   Input ~ 0
S-
$Comp
L S8550 Q1
U 1 1 5B35FCCC
P 2300 2200
F 0 "Q1" H 2500 2275 50  0000 L CNN
F 1 "S8550" H 2500 2200 50  0000 L CNN
F 2 "TO_SOT_Packages_THT:TO-92_Molded_Narrow" H 2500 2125 50  0001 L CIN
F 3 "" H 2300 2200 50  0001 L CNN
	1    2300 2200
	0    -1   -1   0   
$EndComp
$Comp
L GND #PWR020
U 1 1 5B360320
P 1550 2250
F 0 "#PWR020" H 1550 2000 50  0001 C CNN
F 1 "GND" H 1550 2100 50  0000 C CNN
F 2 "" H 1550 2250 50  0001 C CNN
F 3 "" H 1550 2250 50  0001 C CNN
	1    1550 2250
	1    0    0    -1  
$EndComp
$Comp
L C C12
U 1 1 5B360949
P 2050 3150
F 0 "C12" H 2075 3250 50  0000 L CNN
F 1 "100nF" H 2075 3050 50  0000 L CNN
F 2 "Capacitors_SMD:C_0603" H 2088 3000 50  0001 C CNN
F 3 "" H 2050 3150 50  0001 C CNN
	1    2050 3150
	1    0    0    -1  
$EndComp
$Comp
L GND #PWR021
U 1 1 5B3618E6
P 1700 3700
F 0 "#PWR021" H 1700 3450 50  0001 C CNN
F 1 "GND" H 1700 3550 50  0000 C CNN
F 2 "" H 1700 3700 50  0001 C CNN
F 3 "" H 1700 3700 50  0001 C CNN
	1    1700 3700
	1    0    0    -1  
$EndComp
$Comp
L C C10
U 1 1 5B361A89
P 1100 3050
F 0 "C10" H 1125 3150 50  0000 L CNN
F 1 "100nF" H 1125 2950 50  0000 L CNN
F 2 "Capacitors_SMD:C_0603" H 1138 2900 50  0001 C CNN
F 3 "" H 1100 3050 50  0001 C CNN
	1    1100 3050
	1    0    0    -1  
$EndComp
$Comp
L R R5
U 1 1 5B362026
P 2300 4050
F 0 "R5" V 2380 4050 50  0000 C CNN
F 1 "1k" V 2300 4050 50  0000 C CNN
F 2 "Resistors_SMD:R_0603" V 2230 4050 50  0001 C CNN
F 3 "" H 2300 4050 50  0001 C CNN
	1    2300 4050
	1    0    0    -1  
$EndComp
$Comp
L R R6
U 1 1 5B36209C
P 2600 4050
F 0 "R6" V 2680 4050 50  0000 C CNN
F 1 "1k" V 2600 4050 50  0000 C CNN
F 2 "Resistors_SMD:R_0603" V 2530 4050 50  0001 C CNN
F 3 "" H 2600 4050 50  0001 C CNN
	1    2600 4050
	1    0    0    -1  
$EndComp
$Comp
L C C13
U 1 1 5B362248
P 2450 3650
F 0 "C13" H 2475 3750 50  0000 L CNN
F 1 "100nF" H 2475 3550 50  0000 L CNN
F 2 "Capacitors_SMD:C_0603" H 2488 3500 50  0001 C CNN
F 3 "" H 2450 3650 50  0001 C CNN
	1    2450 3650
	0    1    1    0   
$EndComp
Wire Wire Line
	8100 2350 7800 2350
Wire Wire Line
	7800 2350 7800 2250
Wire Wire Line
	8100 3450 7850 3450
Wire Wire Line
	7850 3450 7850 3350
Wire Wire Line
	7850 3350 7500 3350
Wire Wire Line
	8100 3550 7500 3550
Wire Wire Line
	9950 4300 9950 4650
Wire Wire Line
	10050 4300 10050 4450
Wire Wire Line
	10050 4450 10200 4450
Wire Wire Line
	10200 4450 10200 4650
Wire Wire Line
	6650 2450 6650 2250
Wire Wire Line
	6400 2250 7100 2250
Wire Wire Line
	6650 2750 6650 2900
Wire Wire Line
	7100 2900 7100 2650
Wire Wire Line
	7100 2650 8100 2650
Connection ~ 6650 2900
Wire Wire Line
	8100 2550 7100 2550
Wire Wire Line
	7100 2550 7100 2250
Connection ~ 6650 2250
Wire Wire Line
	6000 2250 6100 2250
Wire Wire Line
	6100 2900 6000 2900
Wire Wire Line
	6400 2900 7100 2900
Wire Wire Line
	8100 2750 7700 2750
Wire Wire Line
	8100 2850 7900 2850
Wire Wire Line
	7900 2850 7900 2900
Wire Wire Line
	7900 2900 7700 2900
Wire Wire Line
	8100 2950 7900 2950
Wire Wire Line
	7900 2950 7900 3050
Wire Wire Line
	7900 3050 7700 3050
Wire Wire Line
	7000 5500 7000 5750
Wire Wire Line
	7000 6350 7000 6600
Wire Wire Line
	8950 5900 9750 5900
Wire Wire Line
	9300 5900 9300 6050
Wire Wire Line
	9300 6350 9300 6500
Wire Wire Line
	8950 6500 9750 6500
Wire Wire Line
	8650 5900 8500 5900
Wire Wire Line
	8500 6500 8650 6500
Connection ~ 9300 5900
Connection ~ 9300 6500
Wire Wire Line
	10300 5900 10050 5900
Wire Wire Line
	10300 6500 10050 6500
Wire Wire Line
	8550 1650 8550 1900
Wire Wire Line
	8750 1650 8750 1750
Wire Wire Line
	8750 1750 8650 1750
Wire Wire Line
	8650 1750 8650 1900
Wire Wire Line
	2650 8350 2650 8400
Wire Wire Line
	2650 8400 3250 8400
Connection ~ 2950 8400
Wire Wire Line
	2650 8700 3250 8700
Connection ~ 2950 8700
Wire Wire Line
	2650 8700 2650 8750
Wire Wire Line
	3650 9850 3650 9650
Wire Wire Line
	3150 9850 3650 9850
Wire Wire Line
	2850 10150 2850 10350
Wire Wire Line
	2100 9850 2550 9850
Wire Wire Line
	2350 9650 2350 9950
Connection ~ 2350 9850
Wire Wire Line
	3350 9850 3350 9950
Connection ~ 3350 9850
Wire Wire Line
	3350 10300 3350 10250
Wire Wire Line
	2350 10300 3350 10300
Connection ~ 2850 10300
Wire Wire Line
	2350 10250 2350 10300
Wire Wire Line
	6550 5900 6550 5650
Wire Wire Line
	6550 5650 7000 5650
Connection ~ 7000 5650
Wire Wire Line
	6550 6200 6550 6450
Wire Wire Line
	6550 6450 7000 6450
Connection ~ 7000 6450
Wire Wire Line
	3600 2500 4050 2500
Wire Wire Line
	3600 3000 4050 3000
Wire Wire Line
	3600 3100 3750 3100
Wire Wire Line
	3600 2600 3750 2600
Wire Wire Line
	3750 2600 3750 2500
Connection ~ 3750 2500
Wire Wire Line
	3750 3100 3750 3000
Connection ~ 3750 3000
Wire Wire Line
	3600 2800 4500 2800
Wire Wire Line
	4500 2950 4350 2950
Wire Wire Line
	4350 2950 4350 2900
Wire Wire Line
	4350 2900 3600 2900
Wire Wire Line
	3600 2100 3600 2400
Wire Wire Line
	1100 2600 2600 2600
Wire Wire Line
	2600 2500 2300 2500
Wire Wire Line
	2600 2100 2600 2400
Wire Wire Line
	2500 2100 3850 2100
Connection ~ 2600 2100
Wire Wire Line
	2300 2500 2300 2400
Wire Wire Line
	1950 2100 2100 2100
Wire Wire Line
	2050 2100 2050 2600
Connection ~ 2050 2600
Wire Wire Line
	1650 2100 1550 2100
Wire Wire Line
	1550 2100 1550 2250
Connection ~ 2050 2100
Wire Wire Line
	2050 2900 2600 2900
Wire Wire Line
	2600 2800 1900 2800
Wire Wire Line
	1650 2700 1650 3050
Wire Wire Line
	1650 2700 2600 2700
Connection ~ 1900 3500
Wire Wire Line
	1550 3000 1550 3100
Wire Wire Line
	1550 3500 1550 3400
Wire Wire Line
	1550 2700 1550 2600
Wire Wire Line
	1650 3050 1550 3050
Connection ~ 1550 3050
Wire Wire Line
	1100 2900 1100 2600
Connection ~ 1550 2600
Wire Wire Line
	1100 3200 1100 3500
Connection ~ 1550 3500
Wire Wire Line
	2250 3600 2250 3600
Wire Wire Line
	2050 2900 2050 3000
Wire Wire Line
	2050 3500 2050 3300
Connection ~ 2050 3500
Wire Wire Line
	1100 3500 1700 3500
Wire Wire Line
	1700 3500 1700 3700
Wire Wire Line
	1550 3500 2050 3500
Wire Wire Line
	1900 2800 1900 3500
Wire Wire Line
	2600 3100 2600 3900
Wire Wire Line
	2600 3000 2300 3000
Wire Wire Line
	2300 3000 2300 3900
Connection ~ 2300 3650
Connection ~ 2600 3650
Wire Wire Line
	2300 4200 2300 4400
Wire Wire Line
	2600 4400 2600 4200
Text GLabel 7750 4000 3    60   Input ~ 0
PD_SCK
Text GLabel 7600 4000 3    60   Input ~ 0
DOUT
Wire Wire Line
	8100 3750 7750 3750
Wire Wire Line
	7750 3750 7750 4000
Wire Wire Line
	8100 3650 7600 3650
Wire Wire Line
	7600 3650 7600 4000
$Comp
L HC-06_(BC417) U4
U 1 1 5B365B6A
P 14000 2800
F 0 "U4" H 14450 3600 60  0000 C CNN
F 1 "HC-06_(BC417)" H 13750 3600 60  0000 C CNN
F 2 "HC-06:HC-06" H 14050 3000 60  0001 C CNN
F 3 "" H 14050 3000 60  0001 C CNN
	1    14000 2800
	1    0    0    -1  
$EndComp
$Comp
L GND #PWR022
U 1 1 5B365CFD
P 14350 4100
F 0 "#PWR022" H 14350 3850 50  0001 C CNN
F 1 "GND" H 14350 3950 50  0000 C CNN
F 2 "" H 14350 4100 50  0001 C CNN
F 3 "" H 14350 4100 50  0001 C CNN
	1    14350 4100
	1    0    0    -1  
$EndComp
$Comp
L GND #PWR023
U 1 1 5B365D63
P 13100 3600
F 0 "#PWR023" H 13100 3350 50  0001 C CNN
F 1 "GND" H 13100 3450 50  0000 C CNN
F 2 "" H 13100 3600 50  0001 C CNN
F 3 "" H 13100 3600 50  0001 C CNN
	1    13100 3600
	1    0    0    -1  
$EndComp
$Comp
L GND #PWR024
U 1 1 5B365DC2
P 14900 3600
F 0 "#PWR024" H 14900 3350 50  0001 C CNN
F 1 "GND" H 14900 3450 50  0000 C CNN
F 2 "" H 14900 3600 50  0001 C CNN
F 3 "" H 14900 3600 50  0001 C CNN
	1    14900 3600
	1    0    0    -1  
$EndComp
Wire Wire Line
	14350 4100 14350 3900
Wire Wire Line
	13100 3600 13100 3450
Wire Wire Line
	13100 3450 13250 3450
Wire Wire Line
	14750 3450 14900 3450
Wire Wire Line
	14900 3450 14900 3600
$Comp
L +3.3V #PWR025
U 1 1 5B365FE2
P 12800 3350
F 0 "#PWR025" H 12800 3200 50  0001 C CNN
F 1 "+3.3V" H 12800 3490 50  0000 C CNN
F 2 "" H 12800 3350 50  0001 C CNN
F 3 "" H 12800 3350 50  0001 C CNN
	1    12800 3350
	0    -1   -1   0   
$EndComp
Wire Wire Line
	12800 3350 13250 3350
Text GLabel 12800 2250 0    60   Input ~ 0
USART_RX
Text GLabel 12800 2400 0    60   Input ~ 0
USART_TX
Wire Wire Line
	12800 2250 13250 2250
Wire Wire Line
	13250 2350 13000 2350
Wire Wire Line
	13000 2350 13000 2400
Wire Wire Line
	13000 2400 12800 2400
$Comp
L R R9
U 1 1 5B3662DE
P 13000 3050
F 0 "R9" V 13080 3050 50  0000 C CNN
F 1 "10k" V 13000 3050 50  0000 C CNN
F 2 "Resistors_SMD:R_0603" V 12930 3050 50  0001 C CNN
F 3 "" H 13000 3050 50  0001 C CNN
	1    13000 3050
	0    -1   -1   0   
$EndComp
$Comp
L GND #PWR026
U 1 1 5B36641D
P 12800 3050
F 0 "#PWR026" H 12800 2800 50  0001 C CNN
F 1 "GND" H 12800 2900 50  0000 C CNN
F 2 "" H 12800 3050 50  0001 C CNN
F 3 "" H 12800 3050 50  0001 C CNN
	1    12800 3050
	0    1    1    0   
$EndComp
Wire Wire Line
	13150 3050 13200 3050
Wire Wire Line
	13200 3050 13200 3250
Wire Wire Line
	13200 3250 13250 3250
Wire Wire Line
	12850 3050 12800 3050
Text GLabel 10650 2950 2    60   Input ~ 0
USART_TX
Text GLabel 10650 2850 2    60   Input ~ 0
USART_RX
Wire Wire Line
	10650 2850 10500 2850
Wire Wire Line
	10650 2950 10500 2950
Text Notes 1050 7900 0    118  ~ 0
Power Regulators (5V->3.3V)\n
Text Notes 1100 1400 0    118  ~ 0
Load Cell Amplifier + 24-bit ADC
Text Notes 7700 1100 0    118  ~ 0
Microcontroller - MBED Enabled
Text Notes 12900 1050 0    118  ~ 0
HC-06 Bluetooth Module
Text Notes 1350 10700 0    39   ~ 0
TODO: Reverse Voltage Protection? Diode, something else?
$Comp
L Conn_01x02 J1
U 1 1 5B39DE26
P 1100 5050
F 0 "J1" H 1100 5150 50  0000 C CNN
F 1 "Conn_01x02" H 1100 4850 50  0000 C CNN
F 2 "Pin_Headers:Pin_Header_Straight_1x02_Pitch1.27mm" H 1100 5050 50  0001 C CNN
F 3 "" H 1100 5050 50  0001 C CNN
	1    1100 5050
	-1   0    0    1   
$EndComp
Text GLabel 1600 5050 2    39   Input ~ 0
S+
Text GLabel 1600 4950 2    39   Input ~ 0
S-
Wire Wire Line
	1600 4950 1300 4950
Wire Wire Line
	1600 5050 1300 5050
$Comp
L Conn_01x03 J2
U 1 1 5B39E40D
P 1100 5600
F 0 "J2" H 1100 5800 50  0000 C CNN
F 1 "Conn_01x03" H 1100 5400 50  0000 C CNN
F 2 "Pin_Headers:Pin_Header_Straight_1x03_Pitch1.27mm" H 1100 5600 50  0001 C CNN
F 3 "" H 1100 5600 50  0001 C CNN
	1    1100 5600
	-1   0    0    1   
$EndComp
$Comp
L GND #PWR027
U 1 1 5B39E515
P 1400 5800
F 0 "#PWR027" H 1400 5550 50  0001 C CNN
F 1 "GND" H 1400 5650 50  0000 C CNN
F 2 "" H 1400 5800 50  0001 C CNN
F 3 "" H 1400 5800 50  0001 C CNN
	1    1400 5800
	1    0    0    -1  
$EndComp
$Comp
L +3.3V #PWR028
U 1 1 5B39E5CE
P 1550 5600
F 0 "#PWR028" H 1550 5450 50  0001 C CNN
F 1 "+3.3V" H 1550 5740 50  0000 C CNN
F 2 "" H 1550 5600 50  0001 C CNN
F 3 "" H 1550 5600 50  0001 C CNN
	1    1550 5600
	0    1    1    0   
$EndComp
$Comp
L +5V #PWR029
U 1 1 5B39E620
P 1400 5400
F 0 "#PWR029" H 1400 5250 50  0001 C CNN
F 1 "+5V" H 1400 5540 50  0000 C CNN
F 2 "" H 1400 5400 50  0001 C CNN
F 3 "" H 1400 5400 50  0001 C CNN
	1    1400 5400
	1    0    0    -1  
$EndComp
Wire Wire Line
	1400 5400 1400 5500
Wire Wire Line
	1400 5500 1300 5500
Wire Wire Line
	1550 5600 1300 5600
Wire Wire Line
	1400 5800 1400 5700
Wire Wire Line
	1400 5700 1300 5700
Text GLabel 8000 4050 3    39   Input ~ 0
USART5_TX
Text GLabel 8550 4550 3    39   Input ~ 0
USART5_RX
Wire Wire Line
	8100 3850 8000 3850
Wire Wire Line
	8000 3850 8000 4050
Wire Wire Line
	8550 4300 8550 4550
$Comp
L Conn_01x04 J3
U 1 1 5B39F06C
P 2550 5050
F 0 "J3" H 2550 5250 50  0000 C CNN
F 1 "Conn_01x04" H 2550 4750 50  0000 C CNN
F 2 "Pin_Headers:Pin_Header_Angled_1x04_Pitch1.27mm" H 2550 5050 50  0001 C CNN
F 3 "" H 2550 5050 50  0001 C CNN
	1    2550 5050
	-1   0    0    -1  
$EndComp
$Comp
L GND #PWR030
U 1 1 5B39F171
P 2850 5350
F 0 "#PWR030" H 2850 5100 50  0001 C CNN
F 1 "GND" H 2850 5200 50  0000 C CNN
F 2 "" H 2850 5350 50  0001 C CNN
F 3 "" H 2850 5350 50  0001 C CNN
	1    2850 5350
	1    0    0    -1  
$EndComp
Wire Wire Line
	2750 5250 2850 5250
Wire Wire Line
	2850 5250 2850 5350
$Comp
L +3.3V #PWR031
U 1 1 5B39F280
P 2850 4850
F 0 "#PWR031" H 2850 4700 50  0001 C CNN
F 1 "+3.3V" H 2850 4990 50  0000 C CNN
F 2 "" H 2850 4850 50  0001 C CNN
F 3 "" H 2850 4850 50  0001 C CNN
	1    2850 4850
	1    0    0    -1  
$EndComp
Wire Wire Line
	2750 4950 2850 4950
Wire Wire Line
	2850 4950 2850 4850
Text GLabel 2950 5150 2    39   Input ~ 0
SWDIO
Text GLabel 2950 5050 2    39   Input ~ 0
SWCLK
Wire Wire Line
	2950 5150 2750 5150
Wire Wire Line
	2750 5050 2950 5050
Text GLabel 9050 4550 3    39   Input ~ 0
PWM1
Text GLabel 9150 4550 3    39   Input ~ 0
PWM2
Wire Wire Line
	9050 4300 9050 4550
Wire Wire Line
	9150 4300 9150 4550
Wire Wire Line
	10650 3550 10500 3550
Wire Wire Line
	10500 3650 10650 3650
Wire Wire Line
	10500 3750 10650 3750
Wire Wire Line
	10500 3850 10650 3850
Text GLabel 10650 3850 2    39   Input ~ 0
IO1
Text GLabel 10650 3750 2    39   Input ~ 0
IO2
Text GLabel 10650 3650 2    39   Input ~ 0
IO3
Text GLabel 10650 3550 2    39   Input ~ 0
IO4
$Comp
L LED D1
U 1 1 5B3A10E4
P 11200 3500
F 0 "D1" H 11200 3600 50  0000 C CNN
F 1 "STATUS_LED" H 11200 3350 50  0000 C CNN
F 2 "LEDs:LED_0603" H 11200 3500 50  0001 C CNN
F 3 "" H 11200 3500 50  0001 C CNN
	1    11200 3500
	0    -1   -1   0   
$EndComp
$Comp
L LED D2
U 1 1 5B3A1169
P 11650 3500
F 0 "D2" H 11650 3600 50  0000 C CNN
F 1 "STATUS_LED2" H 11650 3350 50  0000 C CNN
F 2 "LEDs:LED_0603" H 11650 3500 50  0001 C CNN
F 3 "" H 11650 3500 50  0001 C CNN
	1    11650 3500
	0    -1   -1   0   
$EndComp
$Comp
L R R8
U 1 1 5B3A11E8
P 10800 3350
F 0 "R8" V 10880 3350 50  0000 C CNN
F 1 "220" V 10800 3350 50  0000 C CNN
F 2 "Resistors_SMD:R_0603" V 10730 3350 50  0001 C CNN
F 3 "" H 10800 3350 50  0001 C CNN
	1    10800 3350
	0    1    1    0   
$EndComp
$Comp
L R R7
U 1 1 5B3A1265
P 10800 3150
F 0 "R7" V 10880 3150 50  0000 C CNN
F 1 "220" V 10800 3150 50  0000 C CNN
F 2 "Resistors_SMD:R_0603" V 10730 3150 50  0001 C CNN
F 3 "" H 10800 3150 50  0001 C CNN
	1    10800 3150
	0    1    1    0   
$EndComp
Wire Wire Line
	10650 3350 10500 3350
Wire Wire Line
	10950 3350 11200 3350
Wire Wire Line
	10950 3150 11650 3150
Wire Wire Line
	11650 3150 11650 3350
Wire Wire Line
	10650 3150 10500 3150
$Comp
L GND #PWR032
U 1 1 5B3A16C6
P 11200 3800
F 0 "#PWR032" H 11200 3550 50  0001 C CNN
F 1 "GND" H 11200 3650 50  0000 C CNN
F 2 "" H 11200 3800 50  0001 C CNN
F 3 "" H 11200 3800 50  0001 C CNN
	1    11200 3800
	1    0    0    -1  
$EndComp
$Comp
L GND #PWR033
U 1 1 5B3A1722
P 11650 3800
F 0 "#PWR033" H 11650 3550 50  0001 C CNN
F 1 "GND" H 11650 3650 50  0000 C CNN
F 2 "" H 11650 3800 50  0001 C CNN
F 3 "" H 11650 3800 50  0001 C CNN
	1    11650 3800
	1    0    0    -1  
$EndComp
Wire Wire Line
	11200 3650 11200 3800
Wire Wire Line
	11650 3800 11650 3650
$Comp
L C C11
U 1 1 5B3A2473
P 1800 2100
F 0 "C11" H 1825 2200 50  0000 L CNN
F 1 "1uF" H 1825 2000 50  0000 L CNN
F 2 "Capacitors_SMD:C_0603" H 1838 1950 50  0001 C CNN
F 3 "" H 1800 2100 50  0001 C CNN
	1    1800 2100
	0    1    1    0   
$EndComp
$Comp
L +3.3V #PWR?
U 1 1 5B3A557E
P 3850 2000
F 0 "#PWR?" H 3850 1850 50  0001 C CNN
F 1 "+3.3V" H 3850 2140 50  0000 C CNN
F 2 "" H 3850 2000 50  0001 C CNN
F 3 "" H 3850 2000 50  0001 C CNN
	1    3850 2000
	1    0    0    -1  
$EndComp
Wire Wire Line
	3850 2100 3850 2000
Connection ~ 3600 2100
$EndSCHEMATC
